%YAML 1.1
%TAG !u! tag:unity3d.com,2011:
--- !u!1045 &1
EditorBuildSettings:
  m_ObjectHideFlags: 0
  serializedVersion: 2
  m_Scenes:
  - enabled: 0
    path: 
    guid: 00000000000000000000000000000000
  - enabled: 1
    path: Assets/Levels/Main Menu.unity
    guid: 190841023133abe47b70143a1744145b
  - enabled: 1
    path: Assets/Levels/Level 1.unity
    guid: 6c098cd3056827349b6a1c5ea65b7d9f
  - enabled: 1
    path: Assets/Levels/Level 2.unity
    guid: f01fded8f6d8ba24aa927a83be04a301
  - enabled: 1
    path: Assets/Levels/Game over Screen.unity
    guid: fa31a7502e3622a4b8b9e3a9bba323ba
  m_configObjects: {}
