%YAML 1.1
%TAG !u! tag:unity3d.com,2011:
--- !u!78 &1
TagManager:
  serializedVersion: 2
  tags:
  - EndLevel
  layers:
  - Default
  - TransparentFX
  - Ignore Raycast
  - 
  - Water
  - UI
  - 
  - 
  - Ground
  - Ladders
  - Player
  - BackGround
  - Enemy
  - Interactables
  - 
  - 
  - 
  - 
  - 
  - 
  - 
  - 
  - 
  - 
  - 
  - 
  - 
  - 
  - 
  - 
  - 
  - 
  m_SortingLayers:
  - name: BackGround
    uniqueID: 1816706111
    locked: 0
  - name: Player
    uniqueID: 2709882639
    locked: 0
  - name: Default
    uniqueID: 0
    locked: 0
  - name: Obsticles
    uniqueID: 4097856465
    locked: 0
  - name: ForeGround
    uniqueID: 1436879107
    locked: 0
  - name: Interactables
    uniqueID: 662784649
    locked: 0
